{
  "Version": "2012-10-17",
  "Statement": [

    {
            "Effect": "Allow",
            "Action": [
                "dynamodb:DescribeStream",
                "dynamodb:GetRecords",
                "dynamodb:GetShardIterator",
                "dynamodb:ListStreams"
            ],
          "Resource": "arn:aws:dynamodb:us-west-2:172574446468:table/covid_US/stream/*"
    },
    {
              "Action": [
                  "firehose:*"
              ],
              "Effect": "Allow",
              "Resource": "*"
          }
      
  ,
{
            "Action": [
                "logs:*"
            ],
            "Effect": "Allow",
            "Resource": "*"
        }
    ]

   




  
}
