{"Version": "2012-10-17",
"Statement": [
    {
        "Sid": "",
        "Effect": "Allow",
        "Action": [
            "glue:GetTable",
            "glue:GetTableVersion",
            "glue:GetTableVersions"
        ],
        "Resource": [
            "arn:aws:glue:us-west-2:172574446468:catalog",
            "arn:aws:glue:us-west-2:172574446468:database/%FIREHOSE_POLICY_TEMPLATE_PLACEHOLDER%",
            "arn:aws:glue:us-west-2:172574446468:table/%FIREHOSE_POLICY_TEMPLATE_PLACEHOLDER%/%FIREHOSE_POLICY_TEMPLATE_PLACEHOLDER%"
        ]
    },
    {
        "Sid": "",
        "Effect": "Allow",
        "Action": [
            "s3:AbortMultipartUpload",
            "s3:GetBucketLocation",
            "s3:GetObject",
            "s3:ListBucket",
            "s3:ListBucketMultipartUploads",
            "s3:PutObject"
        ],
        "Resource": [
            "*"
        ]
    },
    {
        "Sid": "",
        "Effect": "Allow",
        "Action": [
            "lambda:InvokeFunction",
            "lambda:GetFunctionConfiguration"
        ],
        "Resource": "arn:aws:lambda:us-west-2:172574446468:function:firehose_lambda_processor:*"
    },
   
    {
        "Sid": "",
        "Effect": "Allow",
        "Action": [
            "logs:PutLogEvents"
        ],
        "Resource": [
            "arn:aws:logs:us-west-2:172574446468:log-group:/aws/kinesisfirehose/covid_US:log-stream:*"
        ]
    },
    {
        "Sid": "",
        "Effect": "Allow",
        "Action": [
            "kinesis:DescribeStream",
            "kinesis:GetShardIterator",
            "kinesis:GetRecords",
            "kinesis:ListShards"
        ],
        "Resource": "arn:aws:kinesis:us-west-2:172574446468:stream/*"
    },
    {

    "Effect": "Allow",
    "Action": [
        "kms:Decrypt"
    ],
    "Resource": [
        "arn:aws:kms:us-west-2:172574446468:key/*"
    ],
    "Condition": {
        "StringEquals": {
            "kms:ViaService": "kinesis.us-west-2.amazonaws.com"
        },
        "StringLike": {
            "kms:EncryptionContext:aws:kinesis:arn": "arn:aws:kinesis:us-west-2:172574446468:stream/*"
        }
    }
},
{
    "Effect": "Allow",
    "Action": [
        "kms:GenerateDataKey",
        "kms:Decrypt"
    ],
    "Resource": [
        "arn:aws:kms:us-west-2:172574446468:key/*"
    ],
    "Condition": {
        "StringEquals": {
            "kms:ViaService": "s3.us-west-2.amazonaws.com"
        },
        "StringLike": {
            "kms:EncryptionContext:aws:s3:arn": [
                "*"
            ]
        }
    }
},
{
    "Sid": "",
    "Effect": "Allow",
    "Action": [
        "logs:PutLogEvents"
    ],
    "Resource": [
        "arn:aws:logs:us-west-2:172574446468:log-group:/aws/kinesisfirehose/covid_US:log-stream:*"
    ]
}
    
]
}